[
  {
    task: 'ColumnTree Example',
    duration: '3 hours',
    user: '',
    uiProvider: 'col',
    cls: 'master-task',
    iconCls: 'task-folder',
    children: [
      {
        task: 'Abstract rendering in TreeNodeUI',
        duration: '15 min',
        user: 'Jack Slocum',
        uiProvider: 'col',
        leaf: true,
        iconCls: 'task'
      },
      {
        task: 'Create TreeNodeUI with column knowledge',
        duration: '45 min',
        user: 'Jack Slocum',
        uiProvider: 'col',
        leaf: true,
        iconCls: 'task'
      },
      {
        task: 'Create TreePanel to render and lock headers',
        duration: '30 min',
        user: 'Jack Slocum',
        uiProvider: 'col',
        leaf: true,
        iconCls: 'task'
      },
      {
        task: 'Add CSS to make it look fly',
        duration: '30 min',
        user: 'Jack Slocum',
        uiProvider: 'col',
        leaf: true,
        iconCls: 'task'
      },
      {
        task: 'Test and make sure it works',
        duration: '1 hour',
        user: 'Jack Slocum',
        uiProvider: 'col',
        leaf: true,
        iconCls: 'task'
      }
    ]
  },
  {
    task: 'Custom Field Example',
    duration: '2 1/2 hours',
    user: '',
    uiProvider: 'col',
    cls: 'master-task',
    iconCls: 'task-folder',
    children: [
      {
        task: 'Implement "Live Search" on extjs.com from Alex',
        duration: '1 hour',
        user: 'Jack Slocum',
        uiProvider: 'col',
        leaf: true,
        iconCls: 'task'
      },
      {
        task: 'Extend TwinTrigger',
        duration: '30 min',
        user: 'Jack Slocum',
        uiProvider: 'col',
        leaf: true,
        iconCls: 'task'
      },
      {
        task: 'Testing and debugging',
        duration: '1 hour',
        user: 'Jack Slocum',
        uiProvider: 'col',
        leaf: true,
        iconCls: 'task'
      }
    ]
  },
  {
    task: 'Foo Bar Item',
    duration: '3 hours',
    user: '',
    uiProvider: 'col',
    cls: 'master-task',
    iconCls: 'task-folder',
    children: [
      {
        task: 'Abstract rendering in TreeNodeUI',
        duration: '15 min',
        user: 'Jack Slocum',
        uiProvider: 'col',
        leaf: true,
        iconCls: 'task'
      },
      {
        task: 'Create TreeNodeUI with column knowledge',
        duration: '45 min',
        user: 'Jack Slocum',
        uiProvider: 'col',
        leaf: true,
        iconCls: 'task'
      },
      {
        task: 'Create TreePanel to render and lock headers',
        duration: '30 min',
        user: 'Jack Slocum',
        uiProvider: 'col',
        leaf: true,
        iconCls: 'task'
      },
      {
        task: 'Add CSS to make it look fly',
        duration: '30 min',
        user: 'Jack Slocum',
        uiProvider: 'col',
        leaf: true,
        iconCls: 'task'
      },
      {
        task: 'Test and make sure it works',
        duration: '1 hour',
        user: 'Jack Slocum',
        uiProvider: 'col',
        leaf: true,
        iconCls: 'task'
      }
    ]
  },
  {
    task: 'WTF Item',
    duration: '3 hours',
    user: '',
    uiProvider: 'col',
    cls: 'master-task',
    iconCls: 'task-folder',
    children: [
      {
        task: 'Abstract rendering in TreeNodeUI',
        duration: '15 min',
        user: 'Jack Slocum',
        uiProvider: 'col',
        leaf: true,
        iconCls: 'task'
      },
      {
        task: 'Create TreeNodeUI with column knowledge',
        duration: '45 min',
        user: 'Jack Slocum',
        uiProvider: 'col',
        leaf: true,
        iconCls: 'task'
      },
      {
        task: 'Create TreePanel to render and lock headers',
        duration: '30 min',
        user: 'Jack Slocum',
        uiProvider: 'col',
        leaf: true,
        iconCls: 'task'
      },
      {
        task: 'Add CSS to make it look fly',
        duration: '30 min',
        user: 'Jack Slocum',
        uiProvider: 'col',
        leaf: true,
        iconCls: 'task'
      },
      {
        task: 'Test and make sure it works',
        duration: '1 hour',
        user: 'Jack Slocum',
        uiProvider: 'col',
        leaf: true,
        iconCls: 'task'
      }
    ]
  }
]